Logistic Regression
…
---

### Prediction Accuracy

```r
penguins2 <- penguins2 %>%
  mutate(pred = mod$fitted.values)

penguins2 %>%
  select(species, pred)
```

```
## # A tibble: 219 × 2
##    species   pred
##    <fct>    <dbl>
##  1 Adelie  0.0886
##  2 Adelie  0.157 
##  3 Adelie  0.373 
##  4 Adelie  0.315 
##  5 Adelie  0.238 
##  6 Adelie  0.0886
##  7 Adelie  0.373 
##  8 Adelie  0.315 
##  9 Adelie  0.238 
## 10 Adelie  0.157 
## # … with 209 more rows
```
…
